\relax 
\catcode`"\active
\catcode`-\active
\providecommand\HyperFirstAtBeginDocument{\AtBeginDocument}
\HyperFirstAtBeginDocument{\ifx\hyper@anchor\@undefined
\global\let\oldcontentsline\contentsline
\gdef\contentsline#1#2#3#4{\oldcontentsline{#1}{#2}{#3}}
\global\let\oldnewlabel\newlabel
\gdef\newlabel#1#2{\newlabelxx{#1}#2}
\gdef\newlabelxx#1#2#3#4#5#6{\oldnewlabel{#1}{{#2}{#3}}}
\AtEndDocument{\ifx\hyper@anchor\@undefined
\let\contentsline\oldcontentsline
\let\newlabel\oldnewlabel
\fi}
\fi}
\global\let\hyper@last\relax 
\gdef\HyperFirstAtBeginDocument#1{#1}
\providecommand\HyField@AuxAddToFields[1]{}
\providecommand\HyField@AuxAddToCoFields[2]{}
\select@language{czech}
\@writefile{toc}{\select@language{czech}}
\@writefile{lof}{\select@language{czech}}
\@writefile{lot}{\select@language{czech}}
\@writefile{toc}{\contentsline {section}{Osobn\IeC {\'\i } \IeC {\'u}daje}{1}{section*.1}}
\@writefile{toc}{\contentsline {section}{Zam\IeC {\v e}stn\IeC {\'a}n\IeC {\'\i }}{1}{section*.2}}
\@writefile{toc}{\contentsline {section}{Vzd\IeC {\v e}l\IeC {\'a}n\IeC {\'\i }}{1}{section*.3}}
\@writefile{toc}{\contentsline {section}{Diplomov\IeC {\'a} pr\IeC {\'a}ce}{2}{section*.4}}
\@writefile{toc}{\contentsline {section}{Bakal\IeC {\'a}\IeC {\v r}sk\IeC {\'a} pr\IeC {\'a}ce}{2}{section*.5}}
\@writefile{toc}{\contentsline {section}{Jazykov\IeC {\'e} znalosti}{2}{section*.6}}
\@writefile{toc}{\contentsline {section}{Po\IeC {\v c}\IeC {\'\i }ta\IeC {\v c}ov\IeC {\'e} dovednosti}{2}{section*.7}}
\@writefile{toc}{\contentsline {section}{Populariza\IeC {\v c}n\IeC {\'\i } \IeC {\v c}innost}{3}{section*.8}}
\newlabel{lastpage}{{}{3}{}{section*.8}{}}
